{
  "version": "2022.12.0701",
  "versionCode": 2022120701,
  "zipUrl": "https://gitlab.com/nongthaihoang/oh_my_font/-/raw/master/releases/OMF.zip",
  "changelog": "https://gitlab.com/nongthaihoang/oh_my_font/-/raw/master/CHANGELOG.md"
}
